Retrieval-Augmented Feature-based Random Forest for Vegetable Price Forecasting
…
install.packages("vegetablesSriLanka")
pak::pak("thiyangt/vegetablesSriLanka")

library(vegetablesSriLanka)
data("vegetables.srilanka")
vegetables.srilanka

# A tibble: 125,576 × 5
   Date       Item  Type   Market   Price
   <date>     <chr> <chr>  <chr>    <dbl>
 1 2016-08-01 Beans Retail Dambulla   165
 2 2016-08-02 Beans Retail Dambulla   190
 3 2016-08-03 Beans Retail Dambulla   190
 4 2016-08-04 Beans Retail Dambulla   190
 5 2016-08-05 Beans Retail Dambulla   190
 6 2016-08-08 Beans Retail Dambulla   190
 7 2016-08-09 Beans Retail Dambulla   175
 8 2016-08-10 Beans Retail Dambulla   190
 9 2016-08-11 Beans Retail Dambulla   190
10 2016-08-12 Beans Retail Dambulla   175
# ℹ 125,566 more rows
…
